Categories:Multimedia
License:GPL-3.0+
Web Site:
Source Code:https://github.com/PaulWoitaschek/MaterialAudiobookPlayer
Issue Tracker:https://github.com/PaulWoitaschek/MaterialAudiobookPlayer/issues
Changelog:https://github.com/PaulWoitaschek/MaterialAudiobookPlayer/blob/HEAD/CHANGELOG.md

Auto Name:Material Player
Summary:Simple audiobook player
Description:
Audiobook player with the following basic features:

* Remembers last position
* Easy, intuitive interface
* Sleep-timer
* Easily jump to a position
.

Repo Type:git
Repo:https://github.com/PaulWoitaschek/MaterialAudiobookPlayer

Build:1.2.1,5
    commit=348a47364b151f698c8
    subdir=audiobook
    gradle=yes

Build:1.2.2,6
    commit=1.2.2
    subdir=audiobook
    gradle=yes

Build:1.2.5.1,10
    commit=v1.2.5.1
    subdir=audiobook
    gradle=yes

Build:1.3.0,15
    commit=v1.3.0
    subdir=audiobook
    gradle=yes

Build:1.4.0,16
    commit=v1.4.0
    subdir=audiobook
    gradle=yes

Build:1.4.1,17
    commit=v1.4.1
    subdir=audiobook
    gradle=yes

Build:1.4.1.1,18
    commit=v1.4.1.1
    subdir=audiobook
    gradle=yes

Build:1.4.2,19
    commit=v1.4.2
    subdir=audiobook
    gradle=yes

Build:1.4.3,20
    commit=v1.4.3
    subdir=audiobook
    gradle=yes

Build:1.4.5,22
    commit=v1.4.5
    subdir=audiobook
    gradle=yes

Build:1.4.6,23
    commit=v1.4.6
    subdir=audiobook
    gradle=yes

Build:1.4.6.1,24
    commit=v1.4.6.1
    subdir=audiobook
    gradle=yes

Build:1.5.0,25
    disable=binaries, missing jni source
    commit=v1.5.0
    subdir=audiobook
    gradle=yes

Build:1.5.2,27
    disable=binaries, missing jni source
    commit=v1.5.2
    subdir=audiobook
    gradle=yes

Build:1.5.3,28
    commit=v1.5.3
    subdir=audiobook
    gradle=yes

Build:2.0-RC2,39
    commit=v2.0-fdroid
    subdir=audiobook
    gradle=yes

Build:2.0.3,43
    commit=v2.0.3
    subdir=audiobook
    gradle=yes

Build:2.0.4,44
    commit=v2.0.4
    subdir=audiobook
    gradle=yes

Build:2.0.5,45
    commit=v2.0.5
    subdir=audiobook
    gradle=yes

Build:2.0.7,47
    commit=v2.0.7
    subdir=audiobook
    gradle=yes

Build:2.0.8,48
    commit=v2.0.8
    subdir=audiobook
    gradle=yes

Build:2.0.9.1,50
    commit=v2.0.9.1
    subdir=audiobook
    gradle=yes

Build:2.1.0,51
    commit=v2.1.0
    subdir=audiobook
    gradle=yes

Build:2.1.1,52
    commit=v2.1.1
    subdir=audiobook
    gradle=yes

Build:2.1.2.1,54
    commit=v2.1.2.1
    subdir=audiobook
    gradle=yes

Build:2.1.3,56
    commit=v2.1.3
    subdir=audiobook
    gradle=yes

Build:2.1.5,59
    commit=v2.1.5
    subdir=audiobook
    gradle=yes

Build:2.1.6,60
    commit=v2.1.6
    subdir=audiobook
    gradle=yes

Build:2.1.6.1,61
    commit=v2.1.6.1
    subdir=audiobook
    gradle=yes

Build:2.1.7,62
    commit=v2.1.7
    subdir=audiobook
    gradle=yes

Build:2.1.8,63
    commit=v2.1.8
    subdir=audiobook
    gradle=yes

Build:2.1.9,64
    commit=v2.1.9
    subdir=audiobook
    gradle=yes

Build:2.1.9.1,65
    commit=v2.1.9.1
    subdir=audiobook
    gradle=yes

Build:2.2,66
    commit=v2.2
    subdir=audiobook
    gradle=yes

Build:2.2.1,67
    commit=v2.2.1
    subdir=audiobook
    gradle=yes

Build:2.2.2,68
    commit=v2.2.2
    subdir=audiobook
    gradle=yes

Build:2.2.3.1,70
    commit=v2.2.3.1
    subdir=audiobook
    gradle=yes

Build:2.3.0,71
    commit=v2.3.0
    subdir=audiobook
    gradle=yes
    forceversion=yes

Build:2.4.0,72
    commit=v2.4.0
    subdir=audiobook
    gradle=yes
    forceversion=yes
    prebuild=sed -i -e '/applicationVariants.all/i/*' -e '/dependencies {/i*/\n\n}\n' build.gradle

Build:2.4.0.1,73
    commit=v2.4.0.1
    subdir=audiobook
    gradle=yes
    forceversion=yes
    prebuild=sed -i -e '/applicationVariants.all/i/*' -e '/dependencies {/i*/\n\n}\n' build.gradle

Build:2.4.1,74
    commit=v2.4.1
    subdir=audiobook
    gradle=yes
    forceversion=yes
    prebuild=sed -i -e '/applicationVariants.all/i/*' -e '/dependencies {/i*/\n\n}\n' build.gradle

Build:2.4.2,76
    commit=v2.4.2
    subdir=audiobook
    gradle=yes
    forceversion=yes
    prebuild=sed -i -e '/applicationVariants.all/i/*' -e '/dependencies {/i*/\n\n}\n' build.gradle

Build:2.4.3,83
    commit=v2.4.3
    subdir=audiobook
    gradle=yes
    forceversion=yes
    prebuild=sed -i -e '/applicationVariants.all/i/*' -e '/dependencies {/i*/\n\n}\n' build.gradle

Build:2.4.3.2,85
    commit=v2.4.3.2
    subdir=audiobook
    gradle=yes
    forceversion=yes
    prebuild=sed -i -e '/applicationVariants.all/i/*' -e '/dependencies {/i*/\n\n}\n' build.gradle

Build:2.4.4,86
    commit=v2.4.4
    subdir=audiobook
    gradle=yes
    forceversion=yes
    prebuild=sed -i -e '/applicationVariants.all/i/*' -e '/dependencies {/i*/\n\n}\n' build.gradle

Build:2.4.4.1,87
    commit=v2.4.4.1
    subdir=audiobook
    gradle=yes
    forceversion=yes
    prebuild=sed -i -e '/applicationVariants.all/i/*' -e '/dependencies {/i*/\n\n}\n' build.gradle

Build:2.4.2.2,89
    commit=v2.4.2.2
    subdir=audiobook
    gradle=yes
    forceversion=yes
    prebuild=sed -i -e '/applicationVariants.all/i/*' -e '/material-dialogs/s/0.7.9.1/0.7.9.1@aar/g'  -e '/dependencies {/i*/\n\n}\n' build.gradle && \
        sed -i -e '/jcenter/amaven { url "https://jitpack.io" }' ../build.gradle

Build:2.5.0.3,93
    commit=v2.5.0.3
    subdir=audiobook
    gradle=yes
    forceversion=yes
    prebuild=sed -i -e '/applicationVariants.all/,+7d' -e '/splits {/,+7d'  build.gradle

Build:2.5.0.4,94
    commit=v2.5.0.4
    subdir=audiobook
    gradle=yes
    forceversion=yes
    prebuild=sed -i -e '/applicationVariants.all/,+7d' -e '/splits {/,+7d'  build.gradle

Build:2.5.0.5,95
    commit=v2.5.0.5
    subdir=audiobook
    gradle=yes
    forceversion=yes
    prebuild=sed -i -e '/applicationVariants.all/,+8d' build.gradle

Build:2.5.0.6,96
    commit=v2.5.0.6
    subdir=audiobook
    gradle=yes
    forceversion=yes
    prebuild=sed -i -e '/applicationVariants.all/,+8d' build.gradle

Build:2.5.0.7.1,98
    commit=v2.5.0.7.1
    subdir=audiobook
    gradle=yes
    forceversion=yes
    prebuild=sed -i -e '/applicationVariants.all/,+8d' build.gradle

Build:2.5.0.8,99
    commit=v2.5.0.8
    subdir=audiobook
    gradle=yes
    forceversion=yes
    prebuild=sed -i -e '/applicationVariants.all/,+8d' build.gradle

Build:2.5.0.9,100
    disable=java7 issue
    commit=v2.5.0.9
    subdir=audiobook
    gradle=yes
    forceversion=yes
    prebuild=sed -i -e '/applicationVariants.all/,+8d' build.gradle

Build:2.5.0.10,102
    disable=java issue
    commit=v2.5.0.10
    subdir=audiobook
    gradle=yes

Build:2.5.1,104
    disable=proguard issue
    commit=v2.5.1
    subdir=audiobook
    gradle=yes

Build:2.6.0.1,108
    commit=v2.6.0.1
    subdir=audiobook
    gradle=yes
    output=apks/*.apk

Build:2.6.0.3,116
    commit=v2.6.0.3
    subdir=audiobook
    gradle=regularMinSdk,noSnapshot

Build:2.6.0.4,117
    commit=v2.6.0.4
    subdir=audiobook
    gradle=regularMinSdk,noSnapshot

Build:2.6.0.5,118
    commit=v2.6.0.5
    subdir=audiobook
    gradle=regularMinSdk

Build:2.6.0.6,119
    commit=v2.6.0.6
    subdir=audiobook
    gradle=regularMinSdk

Build:2.7,121
    disable=third party maven repo
    commit=v2.7
    subdir=audiobook
    gradle=regularMinSdk

Build:2.7.1,122
    commit=v2.7.1
    subdir=audiobook
    gradle=regularMinSdk

Build:2.7.2.1,124
    commit=v2.7.2.1
    subdir=audiobook
    gradle=regularMinSdk

Build:2.7.2.2,125
    disable=third party maven repo
    commit=v2.7.2.2
    subdir=audiobook
    gradle=regularMinSdk

Build:2.7.2.3,126
    commit=v2.7.2.3
    subdir=audiobook
    gradle=yes

Build:16.08,127
    disable=pre-release sdk and buildtools
    commit=v16.08
    subdir=audiobook
    gradle=yes

Build:2.8.0,128
    disable=pre-release env
    commit=v2.8.0
    subdir=audiobook
    gradle=yes

Build:2.8.0.1,129
    disable=pre-release env
    commit=v2.8.0.1
    subdir=audiobook
    gradle=yes

Build:2.8.0.3,131
    disable=pre-release ConstraintLayout
    commit=v2.8.0.3
    subdir=audiobook
    gradle=yes

Build:2.8.0.4.2,134
    disable=pre-release ConstraintLayout
    commit=v2.8.0.4.2
    subdir=audiobook
    gradle=yes

Build:2.8.0.4.3,135
    disable=pre-release ConstraintLayout
    commit=v2.8.0.4.3
    subdir=audiobook
    gradle=yes

Build:v2.9,138
    disable=pre-release ConstraintLayout
    commit=v2.9
    subdir=audiobook
    gradle=yes

Build:v2.9.0.1,139
    disable=pre-release ConstraintLayout
    commit=v2.9.0.1
    subdir=audiobook
    gradle=yes

Build:v2.9.0.2,140
    disable=pre-release ConstraintLayout
    commit=v2.9.0.2
    subdir=audiobook
    gradle=yes

Build:2.9.1.4,145
    disable=pre-release ConstraintLayout
    commit=v2.9.1.4
    subdir=audiobook
    gradle=yes

Build:2.9.2,146
    disable=pre-release ConstraintLayout
    commit=v2.9.2
    subdir=audiobook
    gradle=yes

Build:2.9.3.1,148
    disable=pre-release ConstraintLayout
    commit=v2.9.3.1
    subdir=audiobook
    gradle=yes

Build:2.9.3.3,150
    disable=pre-release ConstraintLayout
    commit=v2.9.3.3
    subdir=audiobook
    gradle=yes

Build:2.9.3.5,152
    disable=pre-release ConstraintLayout
    commit=v2.9.3.5
    subdir=audiobook
    gradle=yes

Build:2.9.3.6,153
    disable=pre-release ConstraintLayout
    commit=v2.9.3.6
    subdir=audiobook
    gradle=yes

Build:2.9.3.7,154
    disable=pre-release ConstraintLayout
    commit=v2.9.3.7
    subdir=audiobook
    gradle=yes

Build:3.0.7,162
    disable=pre-release ConstraintLayout
    commit=v3.0.7
    subdir=audiobook
    gradle=yes

Build:3.0.8,163
    disable=pre-release ConstraintLayout
    commit=v3.0.8
    subdir=audiobook
    gradle=yes

Build:3.0.11,166
    disable=crashlytics
    commit=v3.0.11
    subdir=audiobook
    gradle=yes

Build:3.0.12,167
    disable=crashlytics
    commit=v3.0.12
    subdir=audiobook
    gradle=yes

Build:3.2.0,178
    commit=3.2.0
    subdir=audiobook
    gradle=opensource
    prebuild=sed -i -e '/fabric/d' -e '/crashlytics/,+2d' ../build.gradle build.gradle

Build:3.2.0.1,179
    commit=3.2.0.1
    subdir=audiobook
    gradle=opensource
    prebuild=sed -i -e '/fabric/d' -e '/crashlytics/,+2d' ../build.gradle build.gradle

Build:3.2.0.2,180
    commit=3.2.0.2
    subdir=audiobook
    gradle=opensource
    prebuild=sed -i -e '/fabric/d' -e '/crashlytics/,+2d' ../build.gradle build.gradle

Build:3.2.0.3,182
    commit=3.2.0.3
    subdir=audiobook
    gradle=opensource
    prebuild=sed -i -e '/fabric/d' -e '/crashlytics/,+2d' ../build.gradle build.gradle

Build:3.3.3,188
    disable=prepareOpus FAILED
    commit=3.3.3
    subdir=audiobook
    gradle=opensource
    prebuild=sed -i -e '/fabric/d' -e '/crashlytics/,+2d' ../build.gradle build.gradle

Build:3.3.3.3,191
    commit=3.3.3.3
    subdir=audiobook
    gradle=opensource
    prebuild=sed -i -e '/fabric/d' -e '/crashlytics/,+2d' -e '/maven.google.com/d' ../build.gradle build.gradle

Build:3.3.3.4,192
    commit=3.3.3.4
    subdir=audiobook
    gradle=opensource
    prebuild=sed -i -e '/fabric/d' -e '/crashlytics/,+2d' -e '/maven.google.com/d' ../build.gradle build.gradle

Build:3.3.3.5,193
    commit=3.3.3.5
    subdir=audiobook
    gradle=opensource
    prebuild=sed -i -e '/fabric/d' -e '/crashlytics/,+2d' -e '/maven.google.com/d' ../build.gradle build.gradle

Build:3.3.3.6,194
    commit=3.3.3.6
    subdir=audiobook
    gradle=opensource
    prebuild=sed -i -e '/fabric/d' -e '/crashlytics/,+2d' -e '/maven.google.com/d' ../build.gradle build.gradle

Auto Update Mode:Version %v
Update Check Mode:Tags ^[0-9.]+?$
Current Version:3.3.3.6
Current Version Code:194
